<!-- Generated by IcoMoon.io -->
<svg version="1.1" xmlns="http://www.w3.org/2000/svg" width="32" height="32" viewBox="0 0 32 32">
<title>clock-color</title>
<path fill="#8fc9b8" d="M30.666 16c0 8.1-6.566 14.667-14.667 14.667s-14.667-6.566-14.667-14.667c0-8.1 6.566-14.667 14.667-14.667s14.667 6.566 14.667 14.667z"></path>
<path fill="#fff" d="M21.058 11.723l-5.724 5.724-2.391-2.39c-0.24-0.233-0.567-0.376-0.928-0.376-0.736 0-1.333 0.597-1.333 1.333 0 0.361 0.144 0.689 0.377 0.929l3.333 3.333c0.241 0.241 0.574 0.391 0.943 0.391s0.701-0.149 0.943-0.391l6.666-6.666c0.25-0.243 0.405-0.582 0.405-0.957 0-0.736-0.597-1.333-1.333-1.333-0.375 0-0.714 0.155-0.956 0.404l-0 0z"></path>
<path fill="#8ea4d2" d="M30.667 14.664c0 0 0 0 0 0-0.737 0-1.334 0.597-1.334 1.334 0 0.002 0 0.003 0 0.005v-0c0 0.001 0 0.002 0 0.004 0 7.366-5.971 13.337-13.337 13.337s-13.337-5.971-13.337-13.337c0-7.366 5.971-13.337 13.337-13.337 3.699 0 7.047 1.506 9.463 3.938l0.001 0.001c0.243 0.252 0.583 0.408 0.96 0.408 0.736 0 1.333-0.597 1.333-1.333 0-0.373-0.153-0.711-0.4-0.953l-0-0c-2.899-2.918-6.914-4.724-11.35-4.724-8.835 0-15.998 7.163-15.998 15.998s7.163 15.998 15.998 15.998c8.835 0 15.998-7.163 15.998-15.998 0-0.001 0-0.002 0-0.003v0c0-0.001 0-0.003 0-0.004 0-0.736-0.597-1.333-1.333-1.334h-0z"></path>
</svg>
