<!-- Generated by IcoMoon.io -->
<svg version="1.1" xmlns="http://www.w3.org/2000/svg" width="50" height="32" viewBox="0 0 50 32">
<title>document</title>
<path d="M42.72 2.75h-35.939c-0.017-0.001-0.038-0.001-0.059-0.001-1.371 0-2.482 1.111-2.482 2.482 0 0.021 0 0.041 0.001 0.062l-0-0.003v21.418c-0.001 0.018-0.001 0.040-0.001 0.061 0 1.371 1.111 2.482 2.482 2.482 0.021 0 0.041-0 0.062-0.001l-0.003 0h35.939c0.017 0.001 0.038 0.001 0.059 0.001 1.371 0 2.482-1.111 2.482-2.482 0-0.021-0-0.041-0.001-0.062l0 0.003v-21.42c0.001-0.017 0.001-0.038 0.001-0.059 0-1.371-1.111-2.482-2.482-2.482-0.021 0-0.041 0-0.062 0.001l0.003-0zM43.452 26.71c-0.027 0.39-0.336 0.699-0.724 0.726l-0.002 0h-35.946c-0.39-0.027-0.699-0.336-0.726-0.724l-0-0.003v-21.42c0.027-0.39 0.336-0.699 0.724-0.726l0.003-0h35.939c0.39 0.027 0.699 0.336 0.726 0.724l0 0.003v21.418z"></path>
<path d="M22.754 8.558h-11.981c-0.040-0.006-0.087-0.009-0.134-0.009-0.532 0-0.963 0.431-0.963 0.963 0 0.047 0.003 0.094 0.010 0.14l-0.001-0.005c-0.006 0.040-0.009 0.087-0.009 0.134 0 0.532 0.431 0.963 0.963 0.963 0.047 0 0.094-0.003 0.14-0.010l-0.005 0.001h12.343c0.041 0.006 0.087 0.009 0.134 0.009 0.532 0 0.963-0.431 0.963-0.963 0-0.047-0.003-0.094-0.010-0.14l0.001 0.005c0.002-0.726-0.73-1.088-1.45-1.088z"></path>
<path d="M22.754 14.729h-11.981c-0.040-0.006-0.087-0.009-0.134-0.009-0.532 0-0.963 0.431-0.963 0.963 0 0.047 0.003 0.094 0.010 0.14l-0.001-0.005c-0.006 0.040-0.009 0.087-0.009 0.134 0 0.532 0.431 0.963 0.963 0.963 0.047 0 0.094-0.003 0.14-0.010l-0.005 0.001h12.343c0.041 0.006 0.087 0.009 0.134 0.009 0.532 0 0.963-0.431 0.963-0.963 0-0.047-0.003-0.094-0.010-0.14l0.001 0.005c-0.362-0.362-0.73-1.088-1.45-1.088z"></path>
<path d="M22.754 20.902h-11.979c-0.673 0.034-1.235 0.473-1.448 1.077l-0.004 0.011c0.036 0.586 0.502 1.052 1.085 1.088l0.003 0h12.343c0.041 0.006 0.087 0.009 0.134 0.009 0.532 0 0.963-0.431 0.963-0.963 0-0.047-0.003-0.094-0.010-0.14l0.001 0.005c0.006-0.041 0.009-0.087 0.009-0.134 0-0.532-0.431-0.963-0.963-0.963-0.047 0-0.094 0.003-0.14 0.010l0.005-0.001z"></path>
<path d="M30.741 23.806h4.718c2.54 0 4.718 0 4.718-2.54 0.001-0.030 0.001-0.065 0.001-0.101 0-2.141-1.561-3.916-3.607-4.252l-0.025-0.003h-0.362v0.362c-1.066 0.887-2.016 1.838-2.873 2.869l-0.029 0.036v-1.816l0.362-0.362v-0.364c-0.273 0.226-0.626 0.364-1.012 0.364-0.027 0-0.053-0.001-0.080-0.002l0.004 0c-0.408-0.069-0.773-0.195-1.108-0.372l0.020 0.010v0.362c-0 0.002-0 0.004-0 0.006 0 0.196 0.159 0.355 0.355 0.355 0.002 0 0.005-0 0.007-0h-0v1.814c-0.362-1.242-0.857-2.326-1.483-3.319l0.031 0.053v-0.36h-0.364c-2.275 0.366-3.993 2.315-3.993 4.666 0 0.018 0 0.037 0 0.055l-0-0.003c0 2.542 2.178 2.542 4.718 2.542z"></path>
<path d="M29.653 12.551v0c0.362 2.54 1.814 4.718 3.63 4.718s3.264-2.176 3.63-4.718v-1.452c-0.286-1.801-1.785-3.175-3.621-3.266l-0.009-0c-1.95 0.13-3.501 1.68-3.63 3.618l-0.001 0.012v1.088zM30.379 12.189v-1.452c-0-0.002-0-0.004-0-0.007 0-0.196 0.159-0.355 0.355-0.355 0.002 0 0.005 0 0.007 0h-0s2.54 1.088 3.992 0c0.357 0.514 0.612 1.127 0.723 1.788l0.004 0.026v0.362l0.362-0.726v0.362c0 0.011 0 0.023 0 0.036 0 1.469-0.708 2.772-1.802 3.586l-0.012 0.008c0 0.362-0.362 0.726-1.088 0.726h-0.726c-0.862-0.461-1.51-1.228-1.807-2.152l-0.007-0.026c-0.246-0.402-0.392-0.887-0.392-1.408 0-0.143 0.011-0.284 0.032-0.422l-0.002 0.015c0.002-0 0.004-0 0.006-0 0.196 0 0.355 0.159 0.355 0.355 0 0.002-0 0.005-0 0.007v-0z"></path>
</svg>
