<!-- Generated by IcoMoon.io -->
<svg version="1.1" xmlns="http://www.w3.org/2000/svg" width="32" height="32" viewBox="0 0 32 32">
<title>error</title>
<path d="M29.855 7.968c-1.422-2.432-3.392-4.401-5.749-5.783l-0.075-0.041c-2.265-1.348-4.994-2.145-7.909-2.145-0.043 0-0.086 0-0.129 0.001l0.007-0c-0.036-0-0.080-0-0.123-0-2.915 0-5.644 0.797-7.981 2.185l0.072-0.040c-2.432 1.422-4.402 3.392-5.783 5.749l-0.041 0.075c-1.348 2.265-2.145 4.994-2.145 7.909 0 0.043 0 0.086 0.001 0.129l-0-0.007c-0 0.036-0 0.079-0 0.122 0 2.915 0.797 5.645 2.185 7.982l-0.040-0.072c1.422 2.432 3.392 4.401 5.749 5.783l0.075 0.041c2.265 1.348 4.994 2.145 7.91 2.145 0.043 0 0.086-0 0.128-0.001l-0.007 0c0.036 0 0.079 0 0.122 0 2.915 0 5.645-0.797 7.982-2.185l-0.072 0.040c2.432-1.422 4.402-3.392 5.783-5.749l0.041-0.075c1.348-2.265 2.145-4.994 2.145-7.91 0-0.043-0-0.086-0.001-0.128l0 0.007c0-0.036 0-0.079 0-0.122 0-2.915-0.797-5.645-2.185-7.982l0.040 0.072zM23.556 19.77c0.245 0.234 0.397 0.563 0.397 0.927 0 0.006-0 0.012-0 0.018v-0.001c0 0.002 0 0.005 0 0.008 0 0.367-0.152 0.699-0.397 0.936l-0 0-1.89 1.89c-0.238 0.245-0.57 0.397-0.938 0.397-0.002 0-0.005 0-0.007-0h0c-0.005 0-0.011 0-0.017 0-0.365 0-0.694-0.152-0.927-0.396l-0-0-3.78-3.78-3.78 3.78c-0.234 0.245-0.563 0.397-0.927 0.397-0.006 0-0.012-0-0.018-0h0.001c-0.002 0-0.004 0-0.007 0-0.368 0-0.7-0.152-0.938-0.397l-1.89-1.89c-0.245-0.237-0.397-0.569-0.397-0.937 0-0.003 0-0.006 0-0.009v0c-0-0.005-0-0.011-0-0.017 0-0.365 0.152-0.694 0.396-0.927l0.001-0 3.78-3.78-3.78-3.78c-0.245-0.234-0.397-0.563-0.397-0.927 0-0.006 0-0.012 0-0.018v0.001c0-0.002-0-0.004-0-0.007 0-0.368 0.152-0.7 0.397-0.938l1.89-1.89c0.237-0.245 0.569-0.397 0.937-0.397 0.003 0 0.006 0 0.009 0h-0c0.005-0 0.011-0 0.017-0 0.365 0 0.694 0.152 0.927 0.396l0 0.001 3.78 3.78 3.78-3.78c0.234-0.245 0.563-0.397 0.927-0.397 0.006 0 0.012 0 0.018 0h-0.001c0.002-0 0.005-0 0.008-0 0.367 0 0.699 0.152 0.936 0.397l0 0 1.89 1.89c0.245 0.237 0.397 0.569 0.397 0.937 0 0.003 0 0.006-0 0.009v-0c0 0.005 0 0.011 0 0.017 0 0.365-0.152 0.694-0.396 0.927l-0 0-3.78 3.78z"></path>
</svg>
